id,categ_id:id,cost_method,valuation,default_code,operation_type/id,"name",list_price,standard_price,procure_method,type,supply_method,hr_expense_ok,purchase_ok,sale_ok,taxes_id,supplier_taxes_id,uom_id/id,uom_po_id/id,property_account_income/id,property_account_expense/id
operation_1,product_category.services,Standard Price,Periodical (manual),,isf_oh_operation_type_1,"Abdominal Tumours",0,0,Make to Stock,Service,Buy,False,False,True,VAT Included,VAT Included,product.product_uom_unit,product.product_uom_unit,,
operation_2,product_category.services,Standard Price,Periodical (manual),,isf_oh_operation_type_2,"Acute abdomen",0,0,Make to Stock,Service,Buy,False,False,True,VAT Included,VAT Included,product.product_uom_unit,product.product_uom_unit,,
operation_3,product_category.services,Standard Price,Periodical (manual),,isf_oh_operation_type_1,"Appendicitis",0,0,Make to Stock,Service,Buy,False,False,True,VAT Included,VAT Included,product.product_uom_unit,product.product_uom_unit,,
operation_4,product_category.services,Standard Price,Periodical (manual),,isf_oh_operation_type_3,"Bladder biopsy",0,0,Make to Stock,Service,Buy,False,False,True,VAT Included,VAT Included,product.product_uom_unit,product.product_uom_unit,,
operation_5,product_category.services,Standard Price,Periodical (manual),,isf_oh_operation_type_4,"Caesarian section",0,0,Make to Stock,Service,Buy,False,False,True,VAT Included,VAT Included,product.product_uom_unit,product.product_uom_unit,,
operation_6,product_category.services,Standard Price,Periodical (manual),,isf_oh_operation_type_1,"Cholecystitis",0,0,Make to Stock,Service,Buy,False,False,True,VAT Included,VAT Included,product.product_uom_unit,product.product_uom_unit,,
operation_7,product_category.services,Standard Price,Periodical (manual),,isf_oh_operation_type_3,"circumcision",0,0,Make to Stock,Service,Buy,False,False,True,VAT Included,VAT Included,product.product_uom_unit,product.product_uom_unit,,
operation_8,product_category.services,Standard Price,Periodical (manual),,isf_oh_operation_type_2,"Cystorele",0,0,Make to Stock,Service,Buy,False,False,True,VAT Included,VAT Included,product.product_uom_unit,product.product_uom_unit,,
operation_9,product_category.services,Standard Price,Periodical (manual),,isf_oh_operation_type_6,"Debridement",0,0,Make to Stock,Service,Buy,False,False,True,VAT Included,VAT Included,product.product_uom_unit,product.product_uom_unit,,
operation_10,product_category.services,Standard Price,Periodical (manual),,isf_oh_operation_type_4,"Dilatation and curettage",0,0,Make to Stock,Service,Buy,False,False,True,VAT Included,VAT Included,product.product_uom_unit,product.product_uom_unit,,
operation_11,product_category.services,Standard Price,Periodical (manual),,isf_oh_operation_type_3,"dorsal slit-paraphimosis",0,0,Make to Stock,Service,Buy,False,False,True,VAT Included,VAT Included,product.product_uom_unit,product.product_uom_unit,,
operation_12,product_category.services,Standard Price,Periodical (manual),,isf_oh_operation_type_2,"Ectopic pregnancy",0,0,Make to Stock,Service,Buy,False,False,True,VAT Included,VAT Included,product.product_uom_unit,product.product_uom_unit,,
operation_13,product_category.services,Standard Price,Periodical (manual),,isf_oh_operation_type_4,"elective",0,0,Make to Stock,Service,Buy,False,False,True,VAT Included,VAT Included,product.product_uom_unit,product.product_uom_unit,,
operation_14,product_category.services,Standard Price,Periodical (manual),,isf_oh_operation_type_4,"emergency",0,0,Make to Stock,Service,Buy,False,False,True,VAT Included,VAT Included,product.product_uom_unit,product.product_uom_unit,,
operation_15,product_category.services,Standard Price,Periodical (manual),,isf_oh_operation_type_1,"Epigastrical Hernia",0,0,Make to Stock,Service,Buy,False,False,True,VAT Included,VAT Included,product.product_uom_unit,product.product_uom_unit,,
operation_16,product_category.services,Standard Price,Periodical (manual),,isf_oh_operation_type_4,"Evacuations",0,0,Make to Stock,Service,Buy,False,False,True,VAT Included,VAT Included,product.product_uom_unit,product.product_uom_unit,,
operation_17,product_category.services,Standard Price,Periodical (manual),,isf_oh_operation_type_1,"Hernia (inguinal & femoral)",0,0,Make to Stock,Service,Buy,False,False,True,VAT Included,VAT Included,product.product_uom_unit,product.product_uom_unit,,
operation_18,product_category.services,Standard Price,Periodical (manual),,isf_oh_operation_type_3,"Hydroceletomy",0,0,Make to Stock,Service,Buy,False,False,True,VAT Included,VAT Included,product.product_uom_unit,product.product_uom_unit,,
operation_19,product_category.services,Standard Price,Periodical (manual),,isf_oh_operation_type_4,"Hysterectomy",0,0,Make to Stock,Service,Buy,False,False,True,VAT Included,VAT Included,product.product_uom_unit,product.product_uom_unit,,
operation_20,product_category.services,Standard Price,Periodical (manual),,isf_oh_operation_type_6,"Incission & drainage",0,0,Make to Stock,Service,Buy,False,False,True,VAT Included,VAT Included,product.product_uom_unit,product.product_uom_unit,,
operation_21,product_category.services,Standard Price,Periodical (manual),,isf_oh_operation_type_4,"Incomplete abortion",0,0,Make to Stock,Service,Buy,False,False,True,VAT Included,VAT Included,product.product_uom_unit,product.product_uom_unit,,
operation_22,product_category.services,Standard Price,Periodical (manual),,isf_oh_operation_type_4,"Injured uterus",0,0,Make to Stock,Service,Buy,False,False,True,VAT Included,VAT Included,product.product_uom_unit,product.product_uom_unit,,
operation_23,product_category.services,Standard Price,Periodical (manual),,isf_oh_operation_type_1,"Intestinal obstruction",0,0,Make to Stock,Service,Buy,False,False,True,VAT Included,VAT Included,product.product_uom_unit,product.product_uom_unit,,
operation_24,product_category.services,Standard Price,Periodical (manual),,isf_oh_operation_type_1,"Laparatomy",0,0,Make to Stock,Service,Buy,False,False,True,VAT Included,VAT Included,product.product_uom_unit,product.product_uom_unit,,
operation_25,product_category.services,Standard Price,Periodical (manual),,isf_oh_operation_type_5,"Lower limb",0,0,Make to Stock,Service,Buy,False,False,True,VAT Included,VAT Included,product.product_uom_unit,product.product_uom_unit,,
operation_26,product_category.services,Standard Price,Periodical (manual),,isf_oh_operation_type_1,"Mechanical",0,0,Make to Stock,Service,Buy,False,False,True,VAT Included,VAT Included,product.product_uom_unit,product.product_uom_unit,,
operation_27,product_category.services,Standard Price,Periodical (manual),,isf_oh_operation_type_6,"Mise -a- plat",0,0,Make to Stock,Service,Buy,False,False,True,VAT Included,VAT Included,product.product_uom_unit,product.product_uom_unit,,
operation_28,product_category.services,Standard Price,Periodical (manual),,isf_oh_operation_type_1,"Non strangulated",0,0,Make to Stock,Service,Buy,False,False,True,VAT Included,VAT Included,product.product_uom_unit,product.product_uom_unit,,
operation_29,product_category.services,Standard Price,Periodical (manual),,isf_oh_operation_type_5,"Osteomyelitis - sequestrectomy",0,0,Make to Stock,Service,Buy,False,False,True,VAT Included,VAT Included,product.product_uom_unit,product.product_uom_unit,,
operation_30,product_category.services,Standard Price,Periodical (manual),,isf_oh_operation_type_2,"Ovarian tumours",0,0,Make to Stock,Service,Buy,False,False,True,VAT Included,VAT Included,product.product_uom_unit,product.product_uom_unit,,
operation_31,product_category.services,Standard Price,Periodical (manual),,isf_oh_operation_type_3,"paraphimosis",0,0,Make to Stock,Service,Buy,False,False,True,VAT Included,VAT Included,product.product_uom_unit,product.product_uom_unit,,
operation_32,product_category.services,Standard Price,Periodical (manual),,isf_oh_operation_type_2,"Pelvic abscess",0,0,Make to Stock,Service,Buy,False,False,True,VAT Included,VAT Included,product.product_uom_unit,product.product_uom_unit,,
operation_33,product_category.services,Standard Price,Periodical (manual),,isf_oh_operation_type_1,"Penetrating abdominal injuries",0,0,Make to Stock,Service,Buy,False,False,True,VAT Included,VAT Included,product.product_uom_unit,product.product_uom_unit,,
operation_34,product_category.services,Standard Price,Periodical (manual),,isf_oh_operation_type_2,"Peritonitis",0,0,Make to Stock,Service,Buy,False,False,True,VAT Included,VAT Included,product.product_uom_unit,product.product_uom_unit,,
operation_35,product_category.services,Standard Price,Periodical (manual),,isf_oh_operation_type_1,"Peritonitis",0,0,Make to Stock,Service,Buy,False,False,True,VAT Included,VAT Included,product.product_uom_unit,product.product_uom_unit,,
operation_36,product_category.services,Standard Price,Periodical (manual),,isf_oh_operation_type_3,"phimosis",0,0,Make to Stock,Service,Buy,False,False,True,VAT Included,VAT Included,product.product_uom_unit,product.product_uom_unit,,
operation_37,product_category.services,Standard Price,Periodical (manual),,isf_oh_operation_type_3,"Prostate biopsy",0,0,Make to Stock,Service,Buy,False,False,True,VAT Included,VAT Included,product.product_uom_unit,product.product_uom_unit,,
operation_38,product_category.services,Standard Price,Periodical (manual),,isf_oh_operation_type_3,"Prostatectomy",0,0,Make to Stock,Service,Buy,False,False,True,VAT Included,VAT Included,product.product_uom_unit,product.product_uom_unit,,
operation_39,product_category.services,Standard Price,Periodical (manual),,isf_oh_operation_type_5,"Reduction of fractures",0,0,Make to Stock,Service,Buy,False,False,True,VAT Included,VAT Included,product.product_uom_unit,product.product_uom_unit,,
operation_40,product_category.services,Standard Price,Periodical (manual),,isf_oh_operation_type_4,"Repair of vesico-vaginal fistula (vvf)",0,0,Make to Stock,Service,Buy,False,False,True,VAT Included,VAT Included,product.product_uom_unit,product.product_uom_unit,,
operation_41,product_category.services,Standard Price,Periodical (manual),,isf_oh_operation_type_4,"Ruptured uterus",0,0,Make to Stock,Service,Buy,False,False,True,VAT Included,VAT Included,product.product_uom_unit,product.product_uom_unit,,
operation_42,product_category.services,Standard Price,Periodical (manual),,isf_oh_operation_type_4,"Septic abortion",0,0,Make to Stock,Service,Buy,False,False,True,VAT Included,VAT Included,product.product_uom_unit,product.product_uom_unit,,
operation_43,product_category.services,Standard Price,Periodical (manual),,isf_oh_operation_type_1,"Strangulated",0,0,Make to Stock,Service,Buy,False,False,True,VAT Included,VAT Included,product.product_uom_unit,product.product_uom_unit,,
operation_44,product_category.services,Standard Price,Periodical (manual),,isf_oh_operation_type_6,"Surgical toilet & suture",0,0,Make to Stock,Service,Buy,False,False,True,VAT Included,VAT Included,product.product_uom_unit,product.product_uom_unit,,
operation_45,product_category.services,Standard Price,Periodical (manual),,isf_oh_operation_type_3,"Testicular tumours",0,0,Make to Stock,Service,Buy,False,False,True,VAT Included,VAT Included,product.product_uom_unit,product.product_uom_unit,,
operation_46,product_category.services,Standard Price,Periodical (manual),,isf_oh_operation_type_5,"Upper limb",0,0,Make to Stock,Service,Buy,False,False,True,VAT Included,VAT Included,product.product_uom_unit,product.product_uom_unit,,
operation_47,product_category.services,Standard Price,Periodical (manual),,isf_oh_operation_type_3,"uretheral stricture-bougienage",0,0,Make to Stock,Service,Buy,False,False,True,VAT Included,VAT Included,product.product_uom_unit,product.product_uom_unit,,
operation_48,product_category.services,Standard Price,Periodical (manual),,isf_oh_operation_type_2,"Uterine fibroids",0,0,Make to Stock,Service,Buy,False,False,True,VAT Included,VAT Included,product.product_uom_unit,product.product_uom_unit,,
operation_49,product_category.services,Standard Price,Periodical (manual),,isf_oh_operation_type_2,"Uterine prolapse",0,0,Make to Stock,Service,Buy,False,False,True,VAT Included,VAT Included,product.product_uom_unit,product.product_uom_unit,,
operation_50,product_category.services,Standard Price,Periodical (manual),,isf_oh_operation_type_1,"Volvulus",0,0,Make to Stock,Service,Buy,False,False,True,VAT Included,VAT Included,product.product_uom_unit,product.product_uom_unit,,
