"id","name"
"isf_oh_operation_type_1","ABDOMINAL GENERAL SURGERY"
"isf_oh_operation_type_2","GYNECOLOGICAL"
"isf_oh_operation_type_3","MALE GENITOR-URINARY SYSTEM"
"isf_oh_operation_type_4","OBSTETRICAL"
"isf_oh_operation_type_5","ORTHOPEDICAL"
"isf_oh_operation_type_6","OTHERS: SKIN AND SUBCUTANEOUS"
